[Thu Jul 14 2016 19:14:08 GMT+0300 (MSK)] layer "info@sever33.ru": Unsupported extension: ru
[Thu Jul 14 2016 19:14:08 GMT+0300 (MSK)] layer "e-mail: info@server33.ru  +7 (4922) 37-31-75 +7 (4922) 377-277 ": Unsupported extension: ru
[Thu Jul 14 2016 19:14:08 GMT+0300 (MSK)] layer "+7 (4922) 377-277": Expected Either a default asset specification or a layer asset specification but "+" found.
